Division,WeightClassKg,Place,Name,Team,BodyweightKg,Best3SquatKg,Best3BenchKg,Best3DeadliftKg,TotalKg,Equipment,Event,Sex,BirthDate
Boys,51.71,1,Freddy Ponce,Gilmer,51.71,140.61,88.45,138.35,367.41,Single-ply,SBD,M,
Boys,51.71,2,Heath Schlottman,Mount Vernon,49.9,111.13,74.84,117.93,303.91,Single-ply,SBD,M,
Boys,51.71,3,Robert Morin,Wills Point,51.26,120.2,61.23,111.13,292.57,Single-ply,SBD,M,
Boys,51.71,4,Jose Martinez,Quinlan Ford,47.63,113.4,47.63,122.47,283.5,Single-ply,SBD,M,
Boys,51.71,5,Kale Roethle,Mount Vernon,50.35,111.13,47.63,122.47,281.23,Single-ply,SBD,M,
Boys,51.71,6,Giovanni Lozano,North Forney,50.35,92.99,61.23,122.47,276.69,Single-ply,SBD,M,
Boys,51.71,7,Avery Whitlow,Atlanta,49.44,83.91,52.16,108.86,244.94,Single-ply,SBD,M,
Boys,51.71,8,Quin Barrentine,Mount Vernon,47.63,88.45,47.63,90.72,226.8,Single-ply,SBD,M,
Boys,51.71,9,Austin McCain,Sulphur Springs,43.54,61.23,40.82,79.38,181.44,Single-ply,SBD,M,
Boys,51.71,DQ,Ethan Reynolds,Quitman,48.99,,,,,Single-ply,SBD,M,
Boys,51.71,DQ,Hugo Sanchez,Pattonville Prairiland,48.99,,,,,Single-ply,SBD,M,
Boys,51.71,DQ,Nicolas Castro,Royse City,51.71,92.99,,,,Single-ply,SBD,M,
Boys,55.79,1,Zavier Edwards,Texarkana Liberty-Eylau,53.98,151.95,113.4,149.69,415.04,Single-ply,SBD,M,
Boys,55.79,2,Zachary Doyle,Royse City,54.88,174.63,79.38,156.49,410.5,Single-ply,SBD,M,
Boys,55.79,3,Alan Landazuri,Quinlan Ford,54.88,147.42,92.99,147.42,387.82,Single-ply,SBD,M,
Boys,55.79,4,Johnny Garza,Pattonville Prairiland,54.43,129.27,81.65,163.29,374.21,Single-ply,SBD,M,
Boys,55.79,5,Leonal Padron,Quinlan Ford,55.79,147.42,63.5,145.15,356.07,Single-ply,SBD,M,
Boys,55.79,6,Julio Ramirez,Lone Oak,55.79,133.81,68.04,120.2,322.05,Single-ply,SBD,M,
Boys,55.79,7,Randon Lassiter,Paris North Lamar,53.52,124.74,74.84,120.2,319.78,Single-ply,SBD,M,
Boys,55.79,8,Caleb Webb,Wills Point,54.43,92.99,77.11,120.2,290.3,Single-ply,SBD,M,
Boys,55.79,9,Caylen Day,Paris Chisum,54.88,92.99,52.16,127.01,272.16,Single-ply,SBD,M,
Boys,55.79,10,Jace Newkirk,Lone Oak,53.98,97.52,49.9,115.67,263.08,Single-ply,SBD,M,
Boys,55.79,11,Mark Farrer,Honey Grove,53.98,99.79,45.36,104.33,249.48,Single-ply,SBD,M,
Boys,55.79,12,Jack Turner,Lone Oak,52.16,102.06,40.82,104.33,247.21,Single-ply,SBD,M,
Boys,55.79,13,Journey Sweet,Paris,52.16,70.31,47.63,86.18,204.12,Single-ply,SBD,M,
Boys,59.87,1,Jabier Bocanegra,Gilmer,58.97,158.76,102.06,176.9,437.72,Single-ply,SBD,M,
Boys,59.87,2,Deuntre Adamson,Paris,58.06,158.76,92.99,179.17,430.91,Single-ply,SBD,M,
Boys,59.87,3,Darwin Acosta,Quinlan Ford,59.87,158.76,86.18,179.17,424.11,Single-ply,SBD,M,
Boys,59.87,4,Kyle Amos,Commerce,59.87,156.49,81.65,163.29,401.43,Single-ply,SBD,M,
Boys,59.87,5,Luke Elnod,Paris North Lamar,57.61,131.54,81.65,158.76,371.95,Single-ply,SBD,M,
Boys,59.87,6,Jeremy Griffin,Quinlan Ford,57.15,136.08,81.65,151.95,369.68,Single-ply,SBD,M,
Boys,59.87,7,Alonzo Torres,Mount Vernon,59.87,124.74,65.77,142.88,333.39,Single-ply,SBD,M,
Boys,59.87,8,Alejandro Mojica,South Garland,58.51,113.4,65.77,136.08,315.25,Single-ply,SBD,M,
Boys,59.87,9,Ruger Cates,Wills Point,56.7,120.2,56.7,120.2,297.1,Single-ply,SBD,M,
Boys,59.87,10,Ryan Ball,Paris North Lamar,57.15,108.86,58.97,117.93,285.76,Single-ply,SBD,M,
Boys,59.87,11,Tyler Williams,Honey Grove,59.87,90.72,45.36,117.93,254.01,Single-ply,SBD,M,
Boys,59.87,DQ,Blayce Lassiter,Paris North Lamar,58.06,,,,,Single-ply,SBD,M,
Boys,59.87,DQ,Isreal Ramirez,Emory Rains,59.42,,,,,Single-ply,SBD,M,
Boys,67.13,1,Gage Dollins,Paris Chisum,65.77,224.53,136.08,219.99,580.6,Single-ply,SBD,M,
Boys,67.13,2,Jesse Carillo,Sulphur Springs,67.13,197.31,124.74,208.65,530.7,Single-ply,SBD,M,
Boys,67.13,3,Cole Hahn,Lone Oak,66.68,210.92,127.01,188.24,526.17,Single-ply,SBD,M,
Boys,67.13,4,River Chaney,Quitman,66.22,192.78,115.67,204.12,512.56,Single-ply,SBD,M,
Boys,67.13,5,Jose Arzola,Mount Vernon,63.96,181.44,106.59,183.7,471.74,Single-ply,SBD,M,
Boys,67.13,6,GiTaeus Young,Paris,66.68,183.7,97.52,185.97,467.2,Single-ply,SBD,M,
Boys,67.13,7,Kollin Moss,Royse City,65.32,188.24,90.72,181.44,460.4,Single-ply,SBD,M,
Boys,67.13,8,Korrighan Smith,Commerce,66.22,176.9,106.59,176.9,460.4,Single-ply,SBD,M,
Boys,67.13,9,Ethan Fort,Lone Oak,65.77,192.78,83.91,174.63,451.32,Single-ply,SBD,M,
Boys,67.13,10,Conner Smith,Commerce,66.68,156.49,92.99,176.9,426.38,Single-ply,SBD,M,
Boys,67.13,11,Jaxen Whisnant,Royse City,62.6,147.42,99.79,165.56,412.77,Single-ply,SBD,M,
Boys,67.13,12,Ryan Kuapil,Wills Point,64.41,154.22,90.72,167.83,412.77,Single-ply,SBD,M,
Boys,67.13,13,Kole Barrentine,Mount Vernon,63.96,145.15,83.91,181.44,410.5,Single-ply,SBD,M,
Boys,67.13,14,Isaiah Aymond,Quitman,66.68,170.1,77.11,158.76,405.97,Single-ply,SBD,M,
Boys,67.13,15,Jacoby Brown,Royse City,67.13,149.69,77.11,161.03,387.82,Single-ply,SBD,M,
Boys,67.13,16,Luis Williams,Harleton,67.13,156.49,97.52,133.81,387.82,Single-ply,SBD,M,
Boys,67.13,17,Bryan Morris,Quitman,63.96,163.29,77.11,145.15,385.55,Single-ply,SBD,M,
Boys,67.13,18,Johnathan Jones,Paris,60.33,154.22,68.04,158.76,381.02,Single-ply,SBD,M,
Boys,67.13,19,Juan Munoz,Quinlan Ford,64.41,151.95,72.57,156.49,381.02,Single-ply,SBD,M,
Boys,67.13,20,Joey Mecaskey,Pattonville Prairiland,65.77,140.61,92.99,147.42,381.02,Single-ply,SBD,M,
Boys,67.13,21,Abel Moreno,Pattonville Prairiland,64.86,145.15,70.31,161.03,376.48,Single-ply,SBD,M,
Boys,67.13,22,Drew Stafford,Harleton,63.05,147.42,74.84,138.35,360.61,Single-ply,SBD,M,
Boys,67.13,23,Matthew Wilson,Harleton,67.13,147.42,77.11,133.81,358.34,Single-ply,SBD,M,
Boys,67.13,24,Hayden Bohme,Royse City,66.68,147.42,72.57,136.08,356.07,Single-ply,SBD,M,
Boys,67.13,25,Teancum Lewis,Lone Oak,62.14,136.08,90.72,122.47,349.27,Single-ply,SBD,M,
Boys,67.13,26,Hunter Kline,Quitman,64.86,138.35,74.84,124.74,337.93,Single-ply,SBD,M,
Boys,67.13,27,Adrian Kennington,Atlanta,67.13,131.54,81.65,124.74,337.93,Single-ply,SBD,M,
Boys,67.13,28,Kenneth Villa,Mount Vernon,60.33,120.2,68.04,120.2,308.44,Single-ply,SBD,M,
Boys,67.13,29,Andy Edwards,Mount Vernon,64.86,117.93,58.97,131.54,308.44,Single-ply,SBD,M,
Boys,67.13,30,Sebastian Letterman,Quitman,66.68,70.31,47.63,95.25,213.19,Single-ply,SBD,M,
Boys,67.13,DQ,Arius Burton,Royse City,66.22,174.63,,,,Single-ply,SBD,M,
Boys,67.13,DQ,Hayden Justice,Paris North Lamar,65.77,195.04,,,,Single-ply,SBD,M,
Boys,74.84,1,Colton Danna,Pattonville Prairiland,73.48,192.78,142.88,204.12,539.77,Single-ply,SBD,M,
Boys,74.84,2,Jose Acosta,Quinlan Ford,72.12,206.38,124.74,188.24,519.36,Single-ply,SBD,M,
Boys,74.84,3,Cameron Cox,Gilmer,73.94,183.7,124.74,174.63,483.08,Single-ply,SBD,M,
Boys,74.84,4,Aidan Alexander,Texarkana Liberty-Eylau,71.21,165.56,138.35,174.63,478.54,Single-ply,SBD,M,
Boys,74.84,5,Lleyton Reed,Texarkana Liberty-Eylau,74.84,176.9,108.86,181.44,467.2,Single-ply,SBD,M,
Boys,74.84,6,Jesus Mendez,Emory Rains,69.85,185.97,95.25,179.17,460.4,Single-ply,SBD,M,
Boys,74.84,7,Logan Shelton,Atlanta,73.48,163.29,111.13,181.44,455.86,Single-ply,SBD,M,
Boys,74.84,8,Sam Mitchum,Royse City,73.94,156.49,102.06,185.97,444.52,Single-ply,SBD,M,
Boys,74.84,9,Gavin Watts,Pattonville Prairiland,71.67,181.44,77.11,181.44,439.98,Single-ply,SBD,M,
Boys,74.84,10,Corbin Martin,Paris,71.67,151.95,106.59,181.44,439.98,Single-ply,SBD,M,
Boys,74.84,11,Keegan Sprouse,Gilmer,74.39,145.15,111.13,174.63,430.91,Single-ply,SBD,M,
Boys,74.84,12,Reggie Ellis,Paris,72.12,147.42,99.79,181.44,428.64,Single-ply,SBD,M,
Boys,74.84,13,Matthew Wisdom,Quinlan Ford,72.57,172.37,79.38,174.63,426.38,Single-ply,SBD,M,
Boys,74.84,14,Tatum Woods,Royse City,69.4,170.1,95.25,156.49,421.84,Single-ply,SBD,M,
Boys,74.84,15,Se'Maj Rose,Texarkana Liberty-Eylau,68.95,149.69,92.99,176.9,419.57,Single-ply,SBD,M,
Boys,74.84,16,Camden Fuller,Sulphur Springs,74.84,158.76,97.52,151.95,408.23,Single-ply,SBD,M,
Boys,74.84,17,Steven Turner,Texarkana Liberty-Eylau,68.49,147.42,97.52,156.49,401.43,Single-ply,SBD,M,
Boys,74.84,18,Zak Adams,Wills Point,72.12,156.49,83.91,151.95,392.36,Single-ply,SBD,M,
Boys,74.84,19,Blake Holbrook,Quinlan Ford,68.49,161.03,86.18,142.88,390.09,Single-ply,SBD,M,
Boys,74.84,20,Silvano Castillo,Quitman,69.85,138.35,74.84,167.83,381.02,Single-ply,SBD,M,
Boys,74.84,21,Marvin Norris,Paris Chisum,72.12,151.95,77.11,149.69,378.75,Single-ply,SBD,M,
Boys,74.84,22,Makenzie McGill,Mount Vernon,69.85,154.22,72.57,149.69,376.48,Single-ply,SBD,M,
Boys,74.84,23,Patrick Roland,Paris,72.12,142.88,79.38,147.42,369.68,Single-ply,SBD,M,
Boys,74.84,24,Jimmy Songer,Lone Oak,74.84,142.88,61.23,151.95,356.07,Single-ply,SBD,M,
Boys,74.84,25,Juan Ramos,Mount Vernon,72.57,129.27,72.57,147.42,349.27,Single-ply,SBD,M,
Boys,74.84,DQ,Kadyn McDonald,Paris,67.59,149.69,,,,Single-ply,SBD,M,
Boys,74.84,DQ,Landry Meskimen,Sulphur Springs,72.12,136.08,,,,Single-ply,SBD,M,
Boys,74.84,DQ,Wyatt Hightower,Quitman,69.85,170.1,,,,Single-ply,SBD,M,
Boys,74.84,DQ,Fernando Cortes,Pattonville Prairiland,71.67,138.35,,,,Single-ply,SBD,M,
Boys,74.84,DQ,Garrett West,Honey Grove,72.12,158.76,,,,Single-ply,SBD,M,
Boys,74.84,DQ,Cj Faulkner,Honey Grove,70.76,133.81,,,,Single-ply,SBD,M,
Boys,82.1,1,Keshawn Wallace,Paris,79.83,213.19,140.61,199.58,553.38,Single-ply,SBD,M,
Boys,82.1,2,Gage Mauch,Lone Oak,81.19,231.33,115.67,188.24,535.24,Single-ply,SBD,M,
Boys,82.1,3,Ryan Carrillo #2,Sulphur Springs,82.1,213.19,136.08,165.56,514.83,Single-ply,SBD,M,
Boys,82.1,4,Anthony Martinez,Wills Point,76.66,210.92,102.06,192.78,505.76,Single-ply,SBD,M,
Boys,82.1,5,Colton Gable,Emory Rains,76.66,201.85,113.4,188.24,503.49,Single-ply,SBD,M,
Boys,82.1,6,Aaron Carrillo,Quinlan Ford,76.2,183.7,113.4,183.7,480.81,Single-ply,SBD,M,
Boys,82.1,7,Kentrel Andrews,Atlanta,82.1,188.24,99.79,190.51,478.54,Single-ply,SBD,M,
Boys,82.1,8,Jordan Miranda,South Garland,77.56,181.44,113.4,174.63,469.47,Single-ply,SBD,M,
Boys,82.1,9,Caleb Robb,Royse City,80.74,181.44,99.79,181.44,462.66,Single-ply,SBD,M,
Boys,82.1,10,Dykalen Douglas,Paris,82.1,181.44,111.13,170.1,462.66,Single-ply,SBD,M,
Boys,82.1,11,Lain Atwood,Paris,75.3,185.97,102.06,163.29,451.32,Single-ply,SBD,M,
Boys,82.1,12,Dekorian Parker,Atlanta,75.75,151.95,124.74,174.63,451.32,Single-ply,SBD,M,
Boys,82.1,13,Matthew Mitchell,Sulphur Springs,78.93,161.03,97.52,190.51,449.06,Single-ply,SBD,M,
Boys,82.1,14,Donavon Throneberry,Emory Rains,77.11,174.63,104.33,167.83,446.79,Single-ply,SBD,M,
Boys,82.1,15,Questyn Dunlap,Mount Vernon,81.19,167.83,74.84,199.58,442.25,Single-ply,SBD,M,
Boys,82.1,16,Henry Serrano,Commerce,77.56,170.1,95.25,158.76,424.11,Single-ply,SBD,M,
Boys,82.1,17,Avery Weaver,Gilmer,80.74,163.29,88.45,172.37,424.11,Single-ply,SBD,M,
Boys,82.1,18,Lincoln Smith,Pattonville Prairiland,81.19,163.29,99.79,154.22,417.3,Single-ply,SBD,M,
Boys,82.1,19,Aiden Hicks,Pattonville Prairiland,78.02,131.54,77.11,147.42,356.07,Single-ply,SBD,M,
Boys,82.1,20,Reese Chaffin,Paris North Lamar,75.75,124.74,88.45,136.08,349.27,Single-ply,SBD,M,
Boys,82.1,21,Cole Gilbert,Pattonville Prairiland,81.19,129.27,81.65,136.08,347,Single-ply,SBD,M,
Boys,82.1,22,Mason Pope,Mount Vernon,80.29,133.81,72.57,138.35,344.73,Single-ply,SBD,M,
Boys,82.1,23,Clayton Boykin,Sulphur Springs,81.19,113.4,81.65,142.88,337.93,Single-ply,SBD,M,
Boys,82.1,24,Brendan Clayton,Atlanta,82.1,102.06,74.84,124.74,301.64,Single-ply,SBD,M,
Boys,82.1,25,Brayden Skelton,Mount Vernon,77.11,99.79,52.16,117.93,269.89,Single-ply,SBD,M,
Boys,82.1,DQ,Blake Hollingsworth,Mount Vernon,81.19,181.44,,,,Single-ply,SBD,M,
Boys,82.1,DQ,Ahmajay Carter,Texarkana Liberty-Eylau,76.2,,,,,Single-ply,SBD,M,
Boys,89.81,1,George Greenway,Sulphur Springs,86.64,272.16,136.08,249.48,657.71,Single-ply,SBD,M,
Boys,89.81,2,Griffin Merillw,Royse City,89.81,251.74,161.03,199.58,612.35,Single-ply,SBD,M,
Boys,89.81,3,Josh Hendricks,Royse City,86.18,195.04,104.33,226.8,526.17,Single-ply,SBD,M,
Boys,89.81,4,Carron Eaton,Texarkana Liberty-Eylau,85.28,183.7,133.81,201.85,519.36,Single-ply,SBD,M,
Boys,89.81,5,Joel Martinez,Mount Vernon,83.46,197.31,108.86,210.92,517.1,Single-ply,SBD,M,
Boys,89.81,6,Jonny Knighton,Emory Rains,87.54,183.7,136.08,176.9,496.68,Single-ply,SBD,M,
Boys,89.81,7,Caden Hoefar,Lone Oak,85.73,206.38,111.13,176.9,494.42,Single-ply,SBD,M,
Boys,89.81,8,Jeremiah Jefferon,Atlanta,83.91,181.44,99.79,188.24,469.47,Single-ply,SBD,M,
Boys,89.81,9,Wade Rouser,Lone Oak,83.01,172.37,113.4,179.17,464.93,Single-ply,SBD,M,
Boys,89.81,10,Wyatt Smithson,Sulphur Springs,83.91,188.24,97.52,174.63,460.4,Single-ply,SBD,M,
Boys,89.81,11,Omahri Davis,Commerce,88.9,170.1,97.52,192.78,460.4,Single-ply,SBD,M,
Boys,89.81,12,Jacen Gray,Royse City,85.28,181.44,90.72,181.44,453.59,Single-ply,SBD,M,
Boys,89.81,13,David Gibson #1,Harleton,87.54,183.7,97.52,172.37,453.59,Single-ply,SBD,M,
Boys,89.81,14,Jayoh Salazar,Harleton,87.09,165.56,99.79,172.37,437.72,Single-ply,SBD,M,
Boys,89.81,15,Cayden Coleman,Gilmer,88.45,154.22,104.33,163.29,421.84,Single-ply,SBD,M,
Boys,89.81,16,Payton Rainbolt,Lone Oak,88.9,172.37,99.79,147.42,419.57,Single-ply,SBD,M,
Boys,89.81,17,Luke Murphy,Quitman,83.46,158.76,83.91,151.95,394.63,Single-ply,SBD,M,
Boys,89.81,18,Jacob Torres,South Garland,83.91,138.35,83.91,156.49,378.75,Single-ply,SBD,M,
Boys,89.81,19,Brody Kriegel,Harleton,86.64,138.35,83.91,151.95,374.21,Single-ply,SBD,M,
Boys,89.81,20,Jacob Stanbough,Wills Point,85.73,142.88,86.18,142.88,371.95,Single-ply,SBD,M,
Boys,89.81,21,Amarian Thomas,Atlanta,84.82,147.42,77.11,145.15,369.68,Single-ply,SBD,M,
Boys,89.81,22,Koda Kaiser,Royse City,89.36,113.4,49.9,127.01,290.3,Single-ply,SBD,M,
Boys,89.81,23,Hunter Dodson,Atlanta,88.9,90.72,45.36,99.79,235.87,Single-ply,SBD,M,
Boys,89.81,DQ,Chandler Sikes,Paris,89.81,181.44,,,,Single-ply,SBD,M,
Boys,89.81,DQ,Jailen Franklin,Paris,82.55,170.1,92.99,,,Single-ply,SBD,M,
Boys,89.81,DQ,William Pasalich,Wills Point,83.91,158.76,,,,Single-ply,SBD,M,
Boys,99.79,1,Colt Cooper,Quinlan Ford,97.52,272.16,167.83,260.82,700.8,Single-ply,SBD,M,
Boys,99.79,2,Trey Adams,Atlanta,92.99,235.87,158.76,215.46,610.08,Single-ply,SBD,M,
Boys,99.79,3,Darrell Bush,Gilmer,97.07,229.06,140.61,229.06,598.74,Single-ply,SBD,M,
Boys,99.79,4,Corjohnta Dunbar,Commerce,99.79,188.24,127.01,226.8,542.04,Single-ply,SBD,M,
Boys,99.79,5,Chad Maynard,Sulphur Springs,99.79,215.46,113.4,201.85,530.7,Single-ply,SBD,M,
Boys,99.79,6,Trent Tennon,Paris,91.63,185.97,102.06,208.65,496.68,Single-ply,SBD,M,
Boys,99.79,7,Peyton Page,Texarkana Liberty-Eylau,94.8,192.78,102.06,174.63,469.47,Single-ply,SBD,M,
Boys,99.79,8,Clay Fant,Atlanta,95.71,170.1,113.4,181.44,464.93,Single-ply,SBD,M,
Boys,99.79,9,Ty Blizzard,Atlanta,94.8,163.29,124.74,174.63,462.66,Single-ply,SBD,M,
Boys,99.79,10,Jarot Ritter,Gilmer,99.34,167.83,108.86,176.9,453.59,Single-ply,SBD,M,
Boys,99.79,11,Taylor Nealy,Gilmer,96.62,158.76,117.93,170.1,446.79,Single-ply,SBD,M,
Boys,99.79,12,Aiden Rose,Royse City,96.62,179.17,81.65,183.7,444.52,Single-ply,SBD,M,
Boys,99.79,13,Johnata Jones,Quitman,97.98,163.29,90.72,188.24,442.25,Single-ply,SBD,M,
Boys,99.79,14,Chance Knight,Commerce,94.35,170.1,95.25,174.63,439.98,Single-ply,SBD,M,
Boys,99.79,15,Brennan Gaston,Atlanta,97.07,163.29,104.33,172.37,439.98,Single-ply,SBD,M,
Boys,99.79,16,Landon Bailey,Pattonville Prairiland,92.08,167.83,111.13,156.49,435.45,Single-ply,SBD,M,
Boys,99.79,17,Richard Jackson,Commerce,98.88,158.76,92.99,167.83,419.57,Single-ply,SBD,M,
Boys,99.79,18,Corbin Branham,Pattonville Prairiland,92.53,133.81,88.45,179.17,401.43,Single-ply,SBD,M,
Boys,99.79,19,Nate Gamble,Texarkana Liberty-Eylau,97.52,136.08,102.06,163.29,401.43,Single-ply,SBD,M,
Boys,99.79,20,Pedro Robles,South Garland,97.52,142.88,86.18,170.1,399.16,Single-ply,SBD,M,
Boys,99.79,21,Remington Brown,Paris North Lamar,92.99,147.42,90.72,158.76,396.89,Single-ply,SBD,M,
Boys,99.79,22,Corbin Brantley,Mount Vernon,98.88,136.08,95.25,158.76,390.09,Single-ply,SBD,M,
Boys,99.79,23,Maverick Brown,Paris North Lamar,94.8,140.61,97.52,149.69,387.82,Single-ply,SBD,M,
Boys,99.79,24,Roy Gaffney,Commerce,99.79,113.4,81.65,151.95,347,Single-ply,SBD,M,
Boys,99.79,25,Kolten Crawford,Emory Rains,90.72,115.67,65.77,145.15,326.59,Single-ply,SBD,M,
Boys,99.79,26,Jonathan Lacy,Quitman,94.35,124.74,61.23,102.06,288.03,Single-ply,SBD,M,
Boys,99.79,DQ,Hunter Smith #9,Royse City,97.98,,,,,Single-ply,SBD,M,
Boys,99.79,DQ,Jaden Wilson #3,Honey Grove,99.79,149.69,92.99,,,Single-ply,SBD,M,
Boys,109.77,1,Quin Dangerfield,Paris,109.77,238.14,149.69,251.74,639.57,Single-ply,SBD,M,
Boys,109.77,2,Cade Fant,Atlanta,106.14,238.14,142.88,231.33,612.35,Single-ply,SBD,M,
Boys,109.77,3,Jaden Luhn,Lone Oak,109.32,240.4,124.74,199.58,564.72,Single-ply,SBD,M,
Boys,109.77,4,Hayden Thomas,Pattonville Prairiland,102.51,192.78,145.15,215.46,553.38,Single-ply,SBD,M,
Boys,109.77,5,Maleik Riley,Texarkana Liberty-Eylau,102.06,190.51,120.2,219.99,530.7,Single-ply,SBD,M,
Boys,109.77,6,Hunter Huggins,Quitman,108.41,208.65,104.33,208.65,521.63,Single-ply,SBD,M,
Boys,109.77,7,Noah Hunt,Atlanta,105.23,181.44,90.72,183.7,455.86,Single-ply,SBD,M,
Boys,109.77,8,Bryson Braley,Honey Grove,108.86,154.22,99.79,190.51,444.52,Single-ply,SBD,M,
Boys,109.77,9,Ivan Almendarez,South Garland,101.15,161.03,97.52,170.1,428.64,Single-ply,SBD,M,
Boys,109.77,10,Isaiah Harrison,Atlanta,105.69,158.76,106.59,161.03,426.38,Single-ply,SBD,M,
Boys,109.77,11,Nolan Wisdom,Harleton,109.32,179.17,74.84,161.03,415.04,Single-ply,SBD,M,
Boys,109.77,12,DeAundre Mitchell,Atlanta,104.33,136.08,108.86,167.83,412.77,Single-ply,SBD,M,
Boys,109.77,13,Virgle Scales,Paris Chisum,107.5,147.42,95.25,156.49,399.16,Single-ply,SBD,M,
Boys,109.77,14,Jonathan Pearce,Mount Vernon,104.33,149.69,92.99,147.42,390.09,Single-ply,SBD,M,
Boys,109.77,15,Carlos Cortes,Atlanta,102.51,145.15,77.11,149.69,371.95,Single-ply,SBD,M,
Boys,109.77,DQ,Hayden Batchelder,Quitman,103.87,181.44,,,,Single-ply,SBD,M,
Boys,109.77,DQ,Ian Carrion,Royse City,109.32,165.56,81.65,,,Single-ply,SBD,M,
Boys,109.77,DQ,Adan Uvina,Royse City,104.33,131.54,,,,Single-ply,SBD,M,
Boys,109.77,DQ,Keran Phounswah,Royse City,109.32,,,,,Single-ply,SBD,M,
Boys,124.74,1,Jamie Cortez,Royse City,123.38,351.53,204.12,272.16,827.81,Single-ply,SBD,M,
Boys,124.74,2,Juan Martinez,Wills Point,117.93,272.16,147.42,272.16,691.73,Single-ply,SBD,M,
Boys,124.74,3,Jacob Gonzales,Wills Point,120.66,249.48,158.76,244.94,653.17,Single-ply,SBD,M,
Boys,124.74,4,Anthony Peak,Commerce,121.56,244.94,158.76,204.12,607.81,Single-ply,SBD,M,
Boys,124.74,5,Bladen Collom,Gilmer,117.03,231.33,131.54,229.06,591.94,Single-ply,SBD,M,
Boys,124.74,6,Satchel Swain,Paris,120.66,235.87,142.88,204.12,582.87,Single-ply,SBD,M,
Boys,124.74,7,Ryan McCormack,Sulphur Springs,124.74,235.87,108.86,210.92,555.65,Single-ply,SBD,M,
Boys,124.74,8,Jaedan Murphy,Paris,114.31,217.72,127.01,208.65,553.38,Single-ply,SBD,M,
Boys,124.74,9,Braden Tittle,Royse City,110.68,208.65,113.4,192.78,514.83,Single-ply,SBD,M,
Boys,124.74,10,Dalton Barker,Emory Rains,113.4,181.44,124.74,190.51,496.68,Single-ply,SBD,M,
Boys,124.74,11,Ty Jacobs,Emory Rains,117.03,217.72,120.2,154.22,492.15,Single-ply,SBD,M,
Boys,124.74,12,David Aroinger,Texarkana Liberty-Eylau,118.39,192.78,106.59,181.44,480.81,Single-ply,SBD,M,
Boys,124.74,13,Everett Stapleton,Commerce,117.48,183.7,88.45,204.12,476.27,Single-ply,SBD,M,
Boys,124.74,14,Noah Howell,Commerce,117.93,179.17,113.4,181.44,474,Single-ply,SBD,M,
Boys,124.74,15,Anthony Wilson,Emory Rains,121.56,174.63,120.2,179.17,474,Single-ply,SBD,M,
Boys,124.74,16,Thomas Diaz,South Garland,110.68,181.44,117.93,163.29,462.66,Single-ply,SBD,M,
Boys,124.74,17,Jaydon Willie,Harleton,110.68,183.7,95.25,176.9,455.86,Single-ply,SBD,M,
Boys,124.74,18,Chase Dillard,Paris Chisum,110.68,163.29,106.59,183.7,453.59,Single-ply,SBD,M,
Boys,124.74,19,J'Marcus Watson,North Forney,111.58,142.88,124.74,183.7,451.32,Single-ply,SBD,M,
Boys,124.74,20,Andrew Parker,Gilmer,117.93,174.63,113.4,156.49,444.52,Single-ply,SBD,M,
Boys,124.74,21,Braeden Wilkins,Paris North Lamar,119.75,156.49,106.59,165.56,428.64,Single-ply,SBD,M,
Boys,124.74,22,Morgan Bivens,Atlanta,117.48,158.76,97.52,147.42,403.7,Single-ply,SBD,M,
Boys,124.74,23,John Ferry,North Forney,120.2,120.2,65.77,136.08,322.05,Single-ply,SBD,M,
Boys,124.74,DQ,Bryce Hollenshead,Paris North Lamar,119.75,197.31,,,,Single-ply,SBD,M,
Boys,124.74,DQ,Joshua Sutton,Sulphur Springs,115.67,156.49,90.72,,,Single-ply,SBD,M,
Boys,124.74+,1,Anthony Cork,Commerce,135.17,249.48,158.76,229.06,637.3,Single-ply,SBD,M,
Boys,124.74+,2,Joshua Anderson,North Forney,135.62,210.92,147.42,210.92,569.26,Single-ply,SBD,M,
Boys,124.74+,3,Byron Golden,North Forney,127.01,188.24,102.06,204.12,494.42,Single-ply,SBD,M,
Boys,124.74+,4,Kris Mayes,Wills Point,158.76,199.58,115.67,170.1,485.34,Single-ply,SBD,M,
Boys,124.74+,5,Riley Tracy,North Forney,146.96,188.24,90.72,190.51,469.47,Single-ply,SBD,M,
Boys,124.74+,6,Joshua Wright #3,Texarkana Liberty-Eylau,155.58,165.56,120.2,181.44,467.2,Single-ply,SBD,M,
Boys,124.74+,7,Logan Hawkins,Paris Chisum,136.08,170.1,113.4,165.56,449.06,Single-ply,SBD,M,
Boys,124.74+,8,Ismael Alvarez,South Garland,139.25,165.56,102.06,170.1,437.72,Single-ply,SBD,M,
Boys,124.74+,9,Garrett Felsberg,Paris North Lamar,130.63,158.76,115.67,151.95,426.38,Single-ply,SBD,M,
Boys,124.74+,10,James Wheeler,Royse City,141.52,170.1,99.79,156.49,426.38,Single-ply,SBD,M,
Boys,124.74+,11,Ryan Giberson,Paris North Lamar,170.1,129.27,79.38,142.88,351.53,Single-ply,SBD,M,
Boys,124.74+,DQ,Devin Moten,Paris,140.61,217.72,,,,Single-ply,SBD,M,
Boys,124.74+,DQ,Quinton Johnson,Mount Vernon,133.36,,,,,Single-ply,SBD,M,
