Sex,Name,CyrillicName,BodyweightKg,Squat1Kg,Squat2Kg,Squat3Kg,Best3SquatKg,Squat4Kg,Bench1Kg,Bench2Kg,Bench3Kg,Best3BenchKg,Bench4Kg,Deadlift1Kg,Deadlift2Kg,Deadlift3Kg,Best3DeadliftKg,Deadlift4Kg,TotalKg,WeightClassKg,Event,Equipment,Tested,Division,Age,BirthDate,Place
F,Veronika Pavlenko,Вероника Павленко,47.5,85,90,-95,90,,55,57.5,-60,57.5,,92.5,97.5,-105,97.5,,245,48,SBD,Raw,No,Pro Teen 13-15,15,2003-10-14,1
F,Veronika Pavlenko,Вероника Павленко,47.5,85,90,-95,90,,55,57.5,-60,57.5,,92.5,97.5,-105,97.5,,245,48,SBD,Raw,No,Pro Open,15,2003-10-14,1
F,Kseniya Gurina,Ксения Гурина,52,50,55,60,60,,27.5,32.5,35,35,,60,65,-70,65,,160,52,SBD,Raw,No,Pro Juniors 20-23,21,1997-10-02,1
F,Oksana Pakhuchaya,Оксана Пахучая,52,80,90,95,95,,47.5,50,52.5,52.5,,130,140,-145,140,,287.5,52,SBD,Raw,No,Pro Open,40,1978-09-19,1
F,Aleksandra Kharchenko,Александра Харченко,52,85,92.5,-97.5,92.5,,52.5,55,57.5,57.5,,100,110,-115,110,,260,52,SBD,Raw,No,Pro Open,32,1986-06-10,2
F,Yuliya Kozar,Юлия Козарь,49.3,60,70,-80,70,,45,47.5,-50,47.5,,90,100,-107.5,100,,217.5,52,SBD,Raw,No,Pro Open,33,1985-01-23,3
F,Ekaterina Korzun,Екатерина Корзун,54.5,85,90,95,95,,50,55,-60,55,,115,125,-132.5,125,,275,56,SBD,Raw,No,Pro Open,35,1983-06-17,1
F,Yuliya Chabannaya,Юлия Чабанная,53.8,80,-85,85,85,,47.5,50,52.5,52.5,,120,130,-135,130,,267.5,56,SBD,Raw,No,Pro Open,32,1986-02-12,2
F,Bozhena Lavrinenko,Божена Лавриненко,58.1,70,77.5,80,80,,42.5,47.5,-50,47.5,,107.5,-117.5,-117.5,107.5,,235,60,SBD,Raw,No,Pro Open,35,1983-07-26,1
M,Daniil Fomin #2,Даниил Фомин,59.8,100,110,120,120,,60,65,-70,65,,120,130,-135,130,,315,60,SBD,Raw,No,Pro Teen 18-19,19,1999-06-03,1
M,Stefan Talpa,Стэфан Талпа,65.3,95,102.5,-110,102.5,,95,102.5,-107.5,102.5,,115,122.5,127.5,127.5,,332.5,67.5,SBD,Raw,No,Pro Teen 16-17,17,2001-08-14,1
M,Rinad Khalibekov,Ринад Халибеков,67.5,110,125,135,135,,80,95,100,100,,150,-170,-170,150,,385,67.5,SBD,Raw,No,Pro Open,24,1994-04-12,1
M,Daniil Pakhuchiy,Даниил Пахучий,72.2,150,165,-170,165,,100,-110,110,110,,170,180,-190,180,,455,75,SBD,Raw,No,Pro Teen 16-17,17,2001-09-12,1
M,Valeriy Bendeberin,Валерий Бендеберин,71.9,165,175,185,185,,120,125,-130,125,,235,-240,-240,235,,545,75,SBD,Raw,No,Pro Juniors 20-23,22,1996-12-02,1
M,Igor Kovtunov,Игорь Ковтунов,72.6,135,145,152.5,152.5,,90,100,-105,100,,-180,190,-200,190,,442.5,75,SBD,Raw,No,Pro Juniors 20-23,22,1996-03-20,2
M,Artur Lepeshinskiy,Артур Лепешинский,72.8,125,-140,-140,125,,105,110,-115,110,,170,180,190,190,,425,75,SBD,Raw,No,Pro Open,31,1987-08-28,1
M,Vladimir Raskachnov,Владимир Раскачнов,79.6,180,190,-197.5,190,,120,130,-135,130,,200,220,-227.5,220,,540,82.5,SBD,Raw,No,Pro Juniors 20-23,22,1996-04-27,2
M,Mikhail Denisov,Михаил Денисов,78.8,160,170,180,180,,90,100,-107.5,100,,210,225,-230,225,,505,82.5,SBD,Raw,No,Pro Juniors 20-23,20,1998-01-30,3
M,Roman Kravchenko,Роман Кравченко,81.8,225,240,250,250,,160,-170,-170,160,,250,-260,,250,,660,82.5,SBD,Raw,No,Pro Open,36,1982-02-21,1
M,Aleksandr Pustovarov,Александр Пустоваров,88.2,-140,140,160,160,,110,120,-127.5,120,,-180,190,-200,190,,470,90,SBD,Raw,No,Pro Juniors 20-23,20,1998-03-23,1
M,Igor Kozyubchenko,Игорь Козюбченко,97,225,240,-250,240,,170,180,185,185,,230,245,-260,245,,670,100,SBD,Raw,No,Pro Open,29,1989-06-01,2
M,Manuk Shorluyan,Манук Шорлуян,94.9,-180,180,190,190,,160,167.5,172.5,172.5,,225,237.5,245,245,,607.5,100,SBD,Raw,No,Pro Open,33,1985-10-06,4
M,Andrey Strizhakov,Андрей Стрижаков,105.5,110,115,120,120,,100,105,-110,105,,135,140,145,145,,370,110,SBD,Raw,No,Pro Open,37,1981-12-07,3
M,Fedor Shtaynert,Федор Штайнерт,122.3,120,130,140,140,,110,120,130,130,,150,-160,180,180,,450,125,SBD,Raw,No,Pro Open,25,1993-03-18,3
F,Kseniya Polyanskaya,Ксения Полянская,51.9,110,120,130,130,,62.5,67.5,70,70,,130,140,145,145,,345,52,SBD,Raw,No,Pro Open,30,1988-11-22,1
F,Yuliya Ageeva,Юлия Агеева,55.7,125,135,145,145,,57.5,62.5,65,65,,110,120,-130,120,,330,56,SBD,Raw,No,Pro Open,32,1986-01-13,1
F,Svetlana Lupinogina,Светлана Лупиногина,55.6,95,105,-115,105,,57.5,60,-62.5,60,,125,135,-142.5,135,,300,56,SBD,Raw,No,Pro Open,36,1982-01-05,2
M,Fedor Eknadiosov,Федор Экнадиосов,75.5,140,155,-170,155,,80,87.5,-90,87.5,,150,162.5,-167.5,162.5,,405,82.5,SBD,Raw,No,Pro Teen 16-17,17,2001-10-20,1
M,Daniil Velichko,Даниил Величко,81.9,260,270,280,280,,145,155,-160,155,,250,265,275,275,,710,82.5,SBD,Raw,No,Pro Juniors 20-23,22,1996-04-05,1
M,Yuriy Goncharov,Юрий Гончаров,82.3,210,220,-230,220,,130,137.5,-140,137.5,,240,250,-255,250,,607.5,82.5,SBD,Raw,No,Pro Open,34,1984-10-14,2
M,Vyacheslav Shapovalov,Вячеслав Шаповалов,81.5,180,190,-200,190,,130,140,-145,140,,190,200,210,210,,540,82.5,SBD,Raw,No,Pro Open,39,1979-06-11,3
M,Anatoliy Fedin,Анатолий Федин,88.2,260,-270,-270,260,,150,160,-162.5,160,,240,260,-267.5,260,,680,90,SBD,Raw,No,Pro Teen 18-19,18,2000-11-28,1
M,Yuriy Kulishov,Юрий Кулишов,86.3,190,200,-205,200,,140,-147.5,-147.5,140,,235,240,-242.5,240,,580,90,SBD,Raw,No,Pro Open,27,1991-01-08,1
M,Evgeniy Shelestyuk,Евгений Шелестюк,98.8,200,220,-230,220,,110,-120,-120,110,,220,240,250,250,,580,100,SBD,Raw,No,Pro Teen 18-19,19,1999-08-02,1
M,Sergey Mikolaenko,Сергей Миколаенко,98.6,270,-280,-280,270,,165,-170,170,170,,260,267.5,-277.5,267.5,,707.5,100,SBD,Raw,No,Pro Open,33,1985-03-19,1
M,Grigoriy Zyryanov,Григорий Зырянов,98.5,240,255,-270,255,,135,147.5,157.5,157.5,,235,250,-265,250,,662.5,100,SBD,Raw,No,Pro Open,32,1986-06-19,3
M,Vitaliy Makhnychev,Виталий Махнычев,98.4,210,225,-235,225,,120,127.5,130,130,,220,240,,240,,595,100,SBD,Raw,No,Pro Open,36,1982-01-01,5
M,Aleksandr Chenchikovskiy,Александр Ченчиковский,102.1,130,145,-152.5,145,,75,80,85,85,,130,140,150,150,,380,110,SBD,Raw,No,Pro Juniors 20-23,21,1997-01-26,1
M,Aleksandr Ilyutkin,Александр Илюткин,102.4,230,-250,250,250,,165,-175,175,175,,305,315,-325,315,,740,110,SBD,Raw,No,Pro Open,25,1993-02-03,1
M,Leonid Borodin,Леонид Бородин,106.5,-260,-260,260,260,,165,175,182.5,182.5,,240,255,265,265,,707.5,110,SBD,Raw,No,Pro Open,35,1983-11-06,2
M,Aleksandr Bochkov,Александр Бочков,121.7,230,-250,-250,230,,145,155,-160,155,,270,-285,-285,270,,655,125,SBD,Raw,No,Pro Open,26,1992-08-13,1
M,Viktor Popov,Виктор Попов,115.4,205,-215,220,220,,150,160,170,170,,240,250,-260,250,,640,125,SBD,Raw,No,Pro Open,31,1987-12-18,2
M,Pavel Kolpakov,Павел Колпаков,67.5,210,230,-240,230,,130,140,-145,140,,210,220,-230,220,,590,67.5,SBD,Single-ply,No,Pro Juniors 20-23,20,1998-06-18,1
F,Veronika Pavlenko,Вероника Павленко,47.5,,,,,,55,57.5,-60,57.5,,,,,,,57.5,48,B,Raw,No,Pro Teen 13-15,15,2003-10-14,1
F,Veronika Pavlenko,Вероника Павленко,47.5,,,,,,55,57.5,-60,57.5,,,,,,,57.5,48,B,Raw,No,Pro Open,15,2003-10-14,1
F,Marina Vishnyakova,Марина Вишнякова,51.1,,,,,,62.5,65,70,70,,,,,,,70,52,B,Raw,No,Pro Open,38,1980-01-02,1
F,Kseniya Polyanskaya,Ксения Полянская,51.9,,,,,,55,67.5,70,70,,,,,,,70,52,B,Raw,No,Pro Open,30,1988-11-22,2
F,Tatyana Bondarenko,Татьяна Бондаренко,50.8,,,,,,55,57.5,-60,57.5,,,,,,,57.5,52,B,Raw,No,Pro Open,27,1991-09-12,3
F,Aleksandra Afanaseva,Александра Афанасьева,51.2,,,,,,50,-52.5,-52.5,50,,,,,,,50,52,B,Raw,No,Pro Open,28,1990-07-05,4
F,Marina Bakay,Марина Бакай,51.4,,,,,,52.5,55,-57.5,55,,,,,,,55,52,B,Raw,No,Pro Masters 45-49,45,1973-02-06,1
F,Svetlana Lupinogina,Светлана Лупиногина,56,,,,,,57.5,60,-62.5,60,,,,,,,60,56,B,Raw,No,Pro Open,36,1982-01-05,1
F,Marina Bazykina,Марина Базыкина,60,,,,,,42.5,-45,-47.5,42.5,,,,,,,42.5,60,B,Raw,No,Pro Masters 50-54,50,1968-03-31,1
F,Elizaveta Bochkova,Елизавета Бочкова,67.2,,,,,,52.5,57.5,60,60,,,,,,,60,67.5,B,Raw,No,Pro Open,24,1994-12-21,1
F,Karina Fetisova,Карина Фетисова,71.9,,,,,,55,57.5,60,60,,,,,,,60,75,B,Raw,No,Pro Teen 13-15,13,2005-11-07,1
F,Natella Vasina,Натэлла Васина,75.6,,,,,,110,-115,-115,110,,,,,,,110,82.5,B,Raw,No,Pro Open,,1975-12-24,1
M,Artem Koval,Артем Коваль,45.5,,,,,,40,-42.5,-42.5,40,,,,,,,40,52,B,Raw,No,Pro Teen 13-15,13,2005-01-05,1
M,Maksim Markin,Максим Маркин,59.7,,,,,,-50,55,60,60,,,,,,,60,60,B,Raw,No,Pro Teen 13-15,13,2005-05-17,1
M,Dmitriy Bolshenko,Дмитрий Большенко,59.2,,,,,,57.5,62.5,-65,62.5,,,,,,,62.5,60,B,Raw,No,Pro Teen 18-19,19,1999-04-20,1
M,Ilya Kolomoets,Илья Коломоец,64.6,,,,,,45,47.5,-50,47.5,,,,,,,47.5,67.5,B,Raw,No,Pro Youth,12,2006-11-22,1
M,Anton Nikitin,Антон Никитин,65.1,,,,,,-110,115,120,120,,,,,,,120,67.5,B,Raw,No,Pro Open,26,1992-05-04,1
M,Maksim Povetkin,Максим Поветкин,65.4,,,,,,110,-115,-115,110,,,,,,,110,67.5,B,Raw,No,Pro Open,27,1991-02-09,2
M,Maksim Golyako,Максим Голяко,72.9,,,,,,-85,95,-102.5,95,,,,,,,95,75,B,Raw,No,Pro Teen 13-15,15,2003-05-27,1
M,Artem Minaev,Артем Минаев,71.3,,,,,,-95,95,97.5,97.5,,,,,,,97.5,75,B,Raw,No,Pro Teen 16-17,16,2002-01-12,1
M,Andrey Shipov,Андрей Шипов,72.6,,,,,,-130,-130,-130,,,,,,,,,75,B,Raw,No,Pro Juniors 20-23,22,1996-12-15,DQ
M,Artem Mkrtchyan,Артем Мкртчян,72.3,,,,,,140,150,-160,150,,,,,,,150,75,B,Raw,No,Pro Open,25,1993-02-25,1
M,Arkadiy Egyazarov,Аркадий Егязаров,72.9,,,,,,125,135,-137.5,135,,,,,,,135,75,B,Raw,No,Pro Open,30,1988-09-01,2
M,Yaroslav Yaroslavskiy #2,Ярослав Ярославский,72.3,,,,,,120,-127.5,127.5,127.5,,,,,,,127.5,75,B,Raw,No,Pro Open,24,1994-04-18,3
M,Vladimir Ivashchenko,Владимир Иващенко,73.4,,,,,,-107.5,-107.5,107.5,107.5,,,,,,,107.5,75,B,Raw,No,Pro Masters 55-59,57,1961-01-26,1
M,Artem Gorban,Артем Горбань,76.3,,,,,,65,-72.5,75,75,,,,,,,75,82.5,B,Raw,No,Pro Teen 13-15,13,2005-01-25,1
M,Aleksandr Votchenko,Александр Вотченко,81.9,,,,,,-140,-142.5,142.5,142.5,,,,,,,142.5,82.5,B,Raw,No,Pro Juniors 20-23,22,1996-06-09,1
M,Vitaliy Samoylichenko,Виталий Самойличенко,79.9,,,,,,170,180,-185,180,,,,,,,180,82.5,B,Raw,No,Pro Open,43,1975-05-04,1
M,Aleksey Goncharenko,Алексей Гончаренко,80.2,,,,,,160,170,175,175,,,,,,,175,82.5,B,Raw,No,Pro Open,37,1981-03-24,2
M,Vladislav Peftiev,Владислав Пефтиев,78.5,,,,,,155,165,-170,165,,,,,,,165,82.5,B,Raw,No,Pro Open,29,1989-06-22,3
M,Vladimir Skidanov,Владимир Скиданов,81.4,,,,,,150,160,-170,160,,,,,,,160,82.5,B,Raw,No,Pro Open,25,1993-10-05,4
M,Roman Kravchenko,Роман Кравченко,81.8,,,,,,160,-170,-170,160,,,,,,,160,82.5,B,Raw,No,Pro Open,36,1982-02-21,5
M,Igor Katyshev,Игорь Катышев,82,,,,,,145,-155,,145,,,,,,,145,82.5,B,Raw,No,Pro Open,35,1983-04-15,6
M,Ildar Kuzyashev,Ильдар Кузяшев,78.8,,,,,,130,-137.5,-137.5,130,,,,,,,130,82.5,B,Raw,No,Pro Open,31,1987-03-16,7
M,Artem Pozdnyakov,Артем Поздняков,82.2,,,,,,-120,125,130,130,,,,,,,130,82.5,B,Raw,No,Pro Open,28,1990-04-09,8
M,Pavel Muzychenko,Павел Музыченко,80.9,,,,,,-160,-160,,,,,,,,,,82.5,B,Raw,No,Pro Open,38,1980-05-30,DQ
M,Mikhail Goncharenko,Михаил Гончаренко,80.3,,,,,,160,170,172.5,172.5,,,,,,,172.5,82.5,B,Raw,No,Pro Masters 40-44,41,1977-08-11,1
M,Danil Kosinov,Данил Косинов,84.8,,,,,,90,-102.5,107.5,107.5,,,,,,,107.5,90,B,Raw,No,Pro Teen 13-15,15,2003-08-26,1
M,Klim Bukhmiller,Клим Бухмиллер,88.4,,,,,,-135,135,-140,135,,,,,,,135,90,B,Raw,No,Pro Juniors 20-23,21,1997-08-07,1
M,Andrey Shifanov,Андрей Шифанов,90,,,,,,180,190,197.5,197.5,,,,,,,197.5,90,B,Raw,No,Pro Open,36,1982-12-09,1
M,Stanislav Peftiev,Станислав Пефтиев,90,,,,,,170,180,-185,180,,,,,,,180,90,B,Raw,No,Pro Open,29,1989-06-22,2
M,Maksim Gavrilov,Максим Гаврилов,88.5,,,,,,157.5,162.5,167.5,167.5,,,,,,,167.5,90,B,Raw,No,Pro Open,29,1989-01-25,3
M,Evgeniy Zlenko,Евгений Зленко,89.3,,,,,,135,145,-150,145,,,,,,,145,90,B,Raw,No,Pro Open,25,1993-01-21,4
M,Aleksandr Omelchenko,Александр Омельченко,89.1,,,,,,120,130,132.5,132.5,,,,,,,132.5,90,B,Raw,No,Pro Open,32,1986-07-06,5
M,Sergey Greshnov,Сергей Грешнов,88.7,,,,,,150,157.5,,157.5,,,,,,,157.5,90,B,Raw,No,Pro Masters 45-49,46,1972-10-07,1
M,Ruslan Albershteyn,Руслан Альберштейн,90,,,,,,140,145,150,150,,,,,,,150,90,B,Raw,No,Pro Masters 45-49,45,1973-01-09,2
M,David Mkhitaryan,Давид Мхитарян,90.5,,,,,,100,107.5,112.5,112.5,,,,,,,112.5,100,B,Raw,No,Pro Teen 16-17,17,2001-04-28,1
M,Vadim Nokhrin,Вадим Нохрин,96.9,,,,,,200,-215,-215,200,,,,,,,200,100,B,Raw,No,Pro Juniors 20-23,23,1995-02-23,1
M,Aleksey Boyko,Алексей Бойко,98.8,,,,,,145,155,160,160,,,,,,,160,100,B,Raw,No,Pro Juniors 20-23,21,1997-05-28,2
M,Egor Skurydin,Егор Скурыдин,99.3,,,,,,200,205,-210,205,,,,,,,205,100,B,Raw,No,Pro Open,35,1983-07-28,1
M,Aleksandr Surovtsev,Александр Суровцев,99.6,,,,,,155,165,170,170,,,,,,,170,100,B,Raw,No,Pro Open,31,1987-05-27,2
M,Andrey Pyatygin,Андрей Пятыгин,99.7,,,,,,155,-165,165,165,,,,,,,165,100,B,Raw,No,Pro Open,32,1986-04-14,3
M,Ivan Baranenko,Иван Бараненко,99,,,,,,145,150,160,160,,,,,,,160,100,B,Raw,No,Pro Masters 40-44,44,1974-02-01,1
M,Said Gamzabekov,Саид Гамзабеков,103.6,,,,,,200,205,-210,205,,,,,,,205,110,B,Raw,No,Pro Open,27,1991-10-15,1
M,Dmitriy Malik,Дмитрий Малик,104.2,,,,,,190,195,200,200,,,,,,,200,110,B,Raw,No,Pro Open,35,1983-05-04,2
M,Bogdan Zikin,Богдан Зикин,104.4,,,,,,195,200,-205,200,,,,,,,200,110,B,Raw,No,Pro Open,37,1981-02-13,3
M,Vladimir Manasyan,Владимир Манасян,101.2,,,,,,160,170,-177.5,170,,,,,,,170,110,B,Raw,No,Pro Open,33,1985-11-08,4
M,Ruben Azadyants,Рубен Азадьянц,107.2,,,,,,190,-197.5,-197.5,190,,,,,,,190,110,B,Raw,No,Pro Masters 40-44,43,1975-10-16,1
M,Vyacheslav Lashchilin,Вячеслав Лащилин,123.6,,,,,,-190,190,200,200,,,,,,,200,125,B,Raw,No,Pro Juniors 20-23,21,1997-01-04,1
M,Dmitriy Kovalev,Дмитрий Ковалев,113.1,,,,,,-185,185,-190,185,,,,,,,185,125,B,Raw,No,Pro Juniors 20-23,23,1995-11-15,2
M,Ruslan Moldavskiy,Руслан Молдавский,118.4,,,,,,200,210,-217.5,210,,,,,,,210,125,B,Raw,No,Pro Open,37,1981-06-23,1
M,Evgeniy Sidelnikov,Евгений Сидельников,122.6,,,,,,145,152.5,,152.5,,,,,,,152.5,125,B,Raw,No,Pro Open,35,1983-03-09,2
M,Denis Glotov,Денис Глотов,111.4,,,,,,130,-140,140,140,,,,,,,140,125,B,Raw,No,Pro Masters 40-44,43,1975-05-19,1
M,Gennadiy Khoroshaev,Геннадий Хорошаев,117.5,,,,,,140,145,-150,145,,,,,,,145,125,B,Raw,No,Pro Masters 55-59,55,1963-03-07,1
M,Petr Gomelauri,Петр Гомелаури,136.4,,,,,,155,167.5,170,170,,,,,,,170,140,B,Raw,No,Pro Open,26,1992-02-27,1
M,Vitaliy Shaulskiy,Виталий Шаульский,128.4,,,,,,200,-205,205,205,,,,,,,205,140,B,Raw,No,Pro Masters 45-49,45,1973-06-02,1
M,Boris Trofimov,Борис Трофимов,152.5,,,,,,220,230,-250,230,,,,,,,230,140+,B,Raw,No,Pro Masters 45-49,46,1972-03-21,1
M,Igor Shapar,Игорь Шапарь,71.4,,,,,,130,135,-140,135,,,,,,,135,75,B,Single-ply,No,Pro Open,28,1990-04-24,1
M,Viktor Garmatin,Виктор Гарматин,80.8,,,,,,-165,165,,165,,,,,,,165,82.5,B,Single-ply,No,Pro Open,35,1983-08-27,1
M,Evgeniy Demin,Евгений Демин,88.5,,,,,,165,-175,-175,165,,,,,,,165,90,B,Single-ply,No,Pro Open,24,1994-08-04,1
M,Sergey Starodubskiy,Сергей Стародубский,122.1,,,,,,265,275,-290,275,,,,,,,275,125,B,Multi-ply,No,Pro Masters 40-44,41,1977-12-20,1
M,Vladimir Zhabin,Владимир Жабин,87.9,,,,,,180,-190,-190,180,,,,,,,180,90,B,Unlimited,No,Pro Open,38,1980-06-27,1
M,Ruslan Albershteyn,Руслан Альберштейн,89.9,,,,,,-180,180,190,190,,,,,,,190,90,B,Unlimited,No,Pro Masters 45-49,45,1973-01-09,1
M,Vadim Nokhrin,Вадим Нохрин,96.9,,,,,,220,230,-250,230,,,,,,,230,100,B,Unlimited,No,Pro Juniors 20-23,23,1995-02-23,1
M,Maksim Uchaev,Максим Учаев,113,,,,,,230,240,-250,240,,,,,,,240,125,B,Unlimited,No,Pro Open,38,1980-06-21,1
F,Veronika Pavlenko,Вероника Павленко,47.5,,,,,,,,,,,92.5,97.5,-105,97.5,,97.5,48,D,Raw,No,Pro Teen 13-15,15,2003-10-14,1
F,Veronika Pavlenko,Вероника Павленко,47.5,,,,,,,,,,,92.5,97.5,-105,97.5,,97.5,48,D,Raw,No,Pro Open,15,2003-10-14,1
F,Anastasiya Khizhnyakova,Анастасия Хижнякова,52,,,,,,,,,,,115,125,135,135,,135,52,D,Raw,No,Pro Juniors 20-23,23,1995-01-12,1
F,Kseniya Polyanskaya,Ксения Полянская,51.9,,,,,,,,,,,92.5,140,145,145,,145,52,D,Raw,No,Pro Open,30,1988-11-22,1
F,Oksana Pakhuchaya,Оксана Пахучая,52,,,,,,,,,,,130,140,-145,140,,140,52,D,Raw,No,Pro Open,40,1978-09-19,2
F,Anastasia Petrova,Анастасия Петрова,54.9,,,,,,,,,,,125,135,140,140,,140,56,D,Raw,No,Pro Open,26,1992-02-04,1
F,Svetlana Lupinogina,Светлана Лупиногина,56,,,,,,,,,,,125,135,-142.5,135,,135,56,D,Raw,No,Pro Open,36,1982-01-05,2
F,Yuliya Chabannaya,Юлия Чабанная,53.8,,,,,,,,,,,120,130,-135,130,,130,56,D,Raw,No,Pro Open,32,1986-02-12,3
F,Natalya Ivanova,Наталья Иванова,59.5,,,,,,,,,,,130,-140,,130,,130,60,D,Raw,No,Pro Open,32,1986-04-25,1
F,Bozhena Lavrinenko,Божена Лавриненко,58.1,,,,,,,,,,,107.5,-117.5,-117.5,107.5,,107.5,60,D,Raw,No,Pro Open,35,1983-07-26,2
F,Elizaveta Marshalova,Елизавета Маршалова,60.8,,,,,,,,,,,-110,120,130,130,,130,67.5,D,Raw,No,Pro Juniors 20-23,20,1998-11-19,1
F,Lyudmila Guseva,Людмила Гусева,64,,,,,,,,,,,155,170,-182.5,170,,170,67.5,D,Raw,No,Pro Open,30,1988-09-15,1
M,Asil Radaydekh,Асиль Радайдех,82.5,,,,,,,,,,,-100,-105,,,,,82.5,D,Raw,No,Pro Juniors 20-23,22,1996-01-26,DQ
M,Dmitriy Pavlov,Дмитрий Павлов,74,,,,,,,,,,,265,-275,-275,265,,265,75,D,Raw,No,Pro Open,26,1992-10-24,1
M,Dakhir Semenov,Дахир Семенов,75,,,,,,,,,,,220,-230,-230,220,,220,75,D,Raw,No,Pro Open,24,1994-05-02,2
M,Andrey Katretskiy,Андрей Катрецкий,74,,,,,,,,,,,190,202.5,-205,202.5,,202.5,75,D,Raw,No,Pro Open,37,1981-07-25,3
M,Mikhail Denisov,Михаил Денисов,78.8,,,,,,,,,,,210,225,-230,225,,225,82.5,D,Raw,No,Pro Juniors 20-23,20,1998-01-30,1
M,Vladimir Raskachnov,Владимир Раскачнов,79.6,,,,,,,,,,,200,220,-227.5,220,,220,82.5,D,Raw,No,Pro Juniors 20-23,22,1996-04-27,2
M,Roman Kravchenko,Роман Кравченко,81.8,,,,,,,,,,,250,-260,,250,,250,82.5,D,Raw,No,Pro Open,36,1982-02-21,1
M,Yuriy Goncharov,Юрий Гончаров,82.3,,,,,,,,,,,240,250,-255,250,,250,82.5,D,Raw,No,Pro Open,34,1984-10-14,2
M,Igor Katyshev,Игорь Катышев,82,,,,,,,,,,,212.5,222.5,230,230,,230,82.5,D,Raw,No,Pro Open,35,1983-04-15,3
M,Eduard Chubaryan,Эдуард Чубарьян,78.7,,,,,,,,,,,190,-200,,190,,190,82.5,D,Raw,No,Pro Open,32,1986-10-09,4
M,Aleksandr Petrika,Александр Петрика,77.2,,,,,,,,,,,150,160,-170,160,,160,82.5,D,Raw,No,Pro Open,25,1993-01-09,5
M,Mikhail Kublikov,Михаил Кубликов,82.5,,,,,,,,,,,170,180,185,185,,185,82.5,D,Raw,No,Pro Masters 45-49,48,1970-08-12,1
M,Petr Vazhinskiy,Петр Важинский,88.6,,,,,,,,,,,-280,280,-297.5,280,,280,90,D,Raw,No,Pro Open,27,1991-08-12,1
M,Aleksandr Vasenin,Александр Васенин,89.2,,,,,,,,,,,220,230,240,240,,240,90,D,Raw,No,Pro Open,31,1987-11-30,2
M,Yuriy Gaevets,Юрий Гаевец,89.4,,,,,,,,,,,190,210,-220,210,,210,90,D,Raw,No,Pro Masters 40-44,40,1978-12-08,1
M,Evgeniy Shelestyuk,Евгений Шелестюк,98.8,,,,,,,,,,,220,240,250,250,,250,100,D,Raw,No,Pro Teen 18-19,19,1999-08-02,1
M,Dmitriy Belokon,Дмитрий Белоконь,100,,,,,,,,,,,-260,275,287.5,287.5,,287.5,100,D,Raw,No,Pro Open,26,1992-12-22,1
M,Andrey Pyatygin,Андрей Пятыгин,99.7,,,,,,,,,,,270,285,-300,285,,285,100,D,Raw,No,Pro Open,32,1986-04-14,2
M,Khasyl Dadakhanov,Хасыл Дадаханов,93.1,,,,,,,,,,,280,-285,,280,,280,100,D,Raw,No,Pro Open,31,1987-02-14,3
M,Aleksandr Lupinogin,Александр Лупиногин,99.7,,,,,,,,,,,250,270,,270,,270,100,D,Raw,No,Pro Open,36,1982-01-25,4
M,Aleksey Vorobev,Алексей Воробьев,97.4,,,,,,,,,,,240,250,260,260,,260,100,D,Raw,No,Pro Open,35,1983-05-30,5
M,Aleksandr Sulatskiy,Александр Сулацкий,97.9,,,,,,,,,,,207.5,-222.5,-222.5,207.5,,207.5,100,D,Raw,No,Pro Open,33,1985-12-13,6
M,Aleksandr Ilyutkin,Александр Илюткин,102.4,,,,,,,,,,,305,315,-325,315,,315,110,D,Raw,No,Pro Open,25,1993-02-03,1
M,Valeriy Gavrikov,Валерий Гавриков,105,,,,,,,,,,,270,290,310,310,,310,110,D,Raw,No,Pro Open,28,1990-05-28,2
M,Artem Koval,Артем Коваль,113.9,,,,,,,,,,,270,280,285,285,,285,125,D,Raw,No,Pro Open,34,1984-08-18,1
M,Aleksandr Bochkov,Александр Бочков,121.7,,,,,,,,,,,270,-285,-285,270,,270,125,D,Raw,No,Pro Open,26,1992-08-13,2
M,Evgeniy Sidelnikov,Евгений Сидельников,122.6,,,,,,,,,,,220,240,-245,240,,240,125,D,Raw,No,Pro Open,35,1983-03-09,3
M,Aleksandr Nazarov,Александр Назаров,119.3,,,,,,,,,,,200,220,230,230,,230,125,D,Raw,No,Pro Open,33,1985-03-09,4
M,Denis Makeev,Денис Макеев,130.3,,,,,,,,,,,275,285,290,290,,290,140,D,Raw,No,Pro Open,35,1983-04-22,1
M,Roman Goryainov,Роман Горяинов,145.6,,,,,,,,,,,240,260,275,275,,275,140+,D,Raw,No,Pro Open,39,1979-02-14,1
F,Elizaveta Bochkova,Елизавета Бочкова,67.2,,,,,,,,,,,145,,,145,,145,67.5,D,Single-ply,No,Pro Open,24,1994-12-21,1
M,Roman Khaustov,Роман Хаустов,86.5,,,,,,,,,,,275,290,-300,290,,290,90,D,Single-ply,No,Pro Open,35,1983-04-30,1
