Name,CyrillicName,WeightClassKg,Sex,Division,BirthDate,BodyweightKg,Bench1Kg,Bench2Kg,Bench3Kg,Best3BenchKg,TotalKg,Event,Equipment,Place
Veronika Rudnevskaya,Вероника Рудневская,52,F,Pro Open,1974-04-24,51.4,50,55,57.5,57.5,57.5,B,Raw,1
Irina Nikulkina,Ирина Никулкина,52,F,Pro Open,1976-02-14,51.9,40,-45,-45,40,40,B,Raw,2
Olesya Filkina,Олеся Филькина,52,F,Pro Open,1981-01-04,52,-40,40,-45,40,40,B,Raw,3
Irina Ignatovich,Ирина Игнатович,56,F,Pro Open,1982-07-20,54.3,65,70,-72.5,70,70,B,Raw,1
Svetlana Maletskaya,Светлана Малецкая,56,F,Pro Open,1983-06-04,55.8,-57.5,57.5,-60,57.5,57.5,B,Raw,2
Polina Turygina,Полина Турыгина,60,F,Pro Open,1985-10-19,60,60,-65,65,65,65,B,Raw,1
Anna Turaeva,Анна Тураева,82.5,F,Pro Open,1978-08-18,82,112.5,122.5,130,130,130,B,Raw,1
Ivan Slobodenyuk,Иван Слободенюк,52,M,Pro Open,1997-08-07,48.8,45,47.5,-50,47.5,47.5,B,Raw,1
Nikolay Lopin,Николай Лопин,60,M,Pro Open,1983-07-11,60,85,-95,-100,85,85,B,Raw,1
Yaroslav Panasenko,Ярослав Панасенко,60,M,Pro Open,1994-02-15,57.7,70,-85,-85,70,70,B,Raw,2
Edgar Gasparyan,Эдгар Гаспарян,67.5,M,Pro Open,1992-08-09,65.2,120,127.5,-130,127.5,127.5,B,Raw,1
Andrey Redkozub,Андрей Редкозуб,67.5,M,Pro Open,1982-03-12,66.3,-125,125,-127.5,125,125,B,Raw,2
Evgeniy Medvedev,Евгений Медведев,67.5,M,Pro Open,1983-10-10,66.4,85,92.5,97.5,97.5,97.5,B,Raw,3
Aleksandr Efremov,Александр Ефремов,67.5,M,Pro Open,1993-07-23,65,-85,85,95,95,95,B,Raw,4
Artur Siropov,Артур Сиропов,67.5,M,Pro Open,1992-12-20,62.8,-80,,,,,B,Raw,DQ
Rustam Bakhtiyarov,Рустам Бахтияров,67.5,M,Pro Open,1989-03-30,66.4,-120,-125,-130,,,B,Raw,DQ
Anton Litvintsev,Антон Литвинцев,75,M,Pro Open,1985-07-18,73.5,130,135,-140,135,135,B,Raw,1
Yuriy Goryunov,Юрий Горюнов,75,M,Pro Open,1987-10-30,73.5,120,125,130,130,130,B,Raw,2
Valentin Kornev,Валентин Корнев,75,M,Pro Open,1981-12-02,72.8,120,125,-127.5,125,125,B,Raw,3
Vladimir Vanyan,Владимир Ванян,75,M,Pro Open,1989-10-14,73.7,125,-130,-130,125,125,B,Raw,4
Yuriy Nikolov,Юрий Николов,75,M,Pro Open,1973-02-01,74.1,115,122.5,125,125,125,B,Raw,5
Maksim Konstantinov,Максим Константинов,75,M,Pro Open,1991-09-01,74.3,120,,-130,120,120,B,Raw,6
Denis Belaonov,Денис Белаонов,75,M,Pro Open,1987-09-26,74.6,115,-120,,115,115,B,Raw,7
Sergey Dzyuba,Сергей Дзюба,75,M,Pro Open,1989-03-14,73,105,110,-115,110,110,B,Raw,8
Igor Kondrashov,Игорь Кондрашов,75,M,Pro Open,1986-07-01,68.8,90,100,105,105,105,B,Raw,9
Vladimir Lazarenko,Владимир Лазаренко,75,M,Pro Open,1984-04-13,73.5,95,105,-115,105,105,B,Raw,10
German Pravdin,Герман Правдин,75,M,Pro Open,1992-07-01,70.7,100,-102.5,-102.5,100,100,B,Raw,11
Evgeniy Pisarev,Евгений Писарев,75,M,Pro Open,1986-01-07,69,90,95,-100,95,95,B,Raw,12
Maksim Maksimov,Максим Максимов,75,M,Pro Open,1992-06-05,72.4,85,-90,-90,85,85,B,Raw,13
Sergey Grishko,Сергей Гришко,82.5,M,Pro Open,1980-01-07,78.2,185,190,-192.5,190,190,B,Raw,1
Dmitriy Kukharenko,Дмитрий Кухаренко,82.5,M,Pro Open,1969-01-22,82,160,170,175,175,175,B,Raw,2
Evgeniy Belyaev,Евгений Беляев,82.5,M,Pro Open,1978-11-19,80.6,140,160,-165,160,160,B,Raw,3
Anton Yatsunov,Антон Яцунов,82.5,M,Pro Open,1987-06-18,81.8,125,130,-135,130,130,B,Raw,4
Dmitriy Solovyev #2,Дмитрий Соловьев,82.5,M,Pro Open,1981-09-09,81.9,-120,120,-125,120,120,B,Raw,5
Denis Afanasev,Денис Афанасьев,82.5,M,Pro Open,1983-06-22,79.9,115,117.5,-120,117.5,117.5,B,Raw,6
Evgeniy Borisenko,Евгений Борисенко,82.5,M,Pro Open,1974-08-23,81.1,-135,-135,,,,B,Raw,DQ
Valeriy Pisarev,Валерий Писарев,82.5,M,Pro Open,1975-12-14,82,-160,-160,,,,B,Raw,DQ
Oleg Osipov,Олег Осипов,90,M,Pro Open,1986-11-12,86,150,165,170,170,170,B,Raw,1
Andrey Darkevich,Андрей Даркевич,90,M,Pro Open,1974-06-01,88.2,127.5,132.5,-137.5,132.5,132.5,B,Raw,2
Igor Kornev,Игорь Корнев,90,M,Pro Open,1957-08-30,87.4,-120,-120,120,120,120,B,Raw,3
Aleksandr Gaykin,Александр Гайкин,90,M,Pro Open,1985-11-29,86.8,-105,110,-115,110,110,B,Raw,4
Nikolay Pupynin,Николай Пупынин,90,M,Pro Open,1995-03-08,90,70,75,80,80,80,B,Raw,5
Mikhail Pupynin,Михаил Пупынин,90,M,Pro Open,1989-01-03,88.6,70,75,-80,75,75,B,Raw,6
Evgeniy Ilyushin,Евгений Илюшин,100,M,Pro Open,1973-12-13,98,160,175,180,180,180,B,Raw,1
Aleksandr Babenko,Александр Бабенко,100,M,Pro Open,1985-11-18,90.6,145,155,160,160,160,B,Raw,2
Aleksey Savosta,Алексей Савоста,100,M,Pro Open,1975-02-14,100,150,-157.5,,150,150,B,Raw,3
Sergey Starodubskiy,Сергей Стародубский,110,M,Pro Open,1977-12-20,110,215,227.5,235,235,235,B,Raw,1
Sergey Galkin,Сергей Галкин,110,M,Pro Open,1981-04-13,106.3,170,180,190,190,190,B,Raw,2
Aleksandr Mitrofanov,Александр Митрофанов,110,M,Pro Open,1985-12-29,105.1,162.5,172.5,185,185,185,B,Raw,3
Pavel Chunikhin,Павел Чунихин,110,M,Pro Open,1982-06-25,105.2,-160,170,180,180,180,B,Raw,4
Viktor Koshkin,Виктор Кошкин,110,M,Pro Open,1979-02-26,108.8,160,167.5,-175,167.5,167.5,B,Raw,5
Aleksandr Okhrimenko,Александр Охрименко,110,M,Pro Open,1987-02-08,102.8,140,147.5,150,150,150,B,Raw,6
Dmitriy Kublikov,Дмитрий Кубликов,110,M,Pro Open,1987-09-08,106.2,-130,130,-140,130,130,B,Raw,7
Georgiy Tombulov,Георгий Томбулов,110,M,Pro Open,1980-09-03,110,-140,-140,-140,,,B,Raw,DQ
Aleksandr Bochkarev,Александр Бочкарев,110,M,Pro Open,1981-12-08,107.4,-170,-170,,,,B,Raw,DQ
Igor Zyablitskiy,Игорь Зяблицкий,125,M,Pro Open,1985-01-02,118,200,215,230,230,230,B,Raw,1
Aleksey Shlykov,Алексей Шлыков,125,M,Pro Open,1984-08-13,119.7,205,-210,212.5,212.5,212.5,B,Raw,2
Roman Lukoshkin,Роман Лукошкин,125,M,Pro Open,1975-12-23,111.3,190,200,-205,200,200,B,Raw,3
Aleksandr Veter,Александр Ветер,125,M,Pro Open,1974-09-28,110.8,180,190,-200,190,190,B,Raw,4
Pavel Siryak,Павел Сиряк,125,M,Pro Open,1986-06-14,116,165,172.5,175,175,175,B,Raw,5
Vitaliy Mordvinov,Виталий Мордвинов,125,M,Pro Open,1987-06-24,112.6,165,-170,170,170,170,B,Raw,6
Aleksey Milovanov,Алексей Милованов,125,M,Pro Open,1976-06-25,119.7,140,150,-172.5,150,150,B,Raw,7
Gennadiy Kokhanovskiy,Геннадий Кохановский,125,M,Pro Open,1975-03-26,119.1,-160,-165,-165,,,B,Raw,DQ
